OPD File Header
MDE0000012
COLOMBIAN HARMONY FLOWERS
JORGE ELIECER TABARES TABARES
1022032934
15:30
-
TOR722
HARMONY
BLANCO
093003
FRESH CUT FLOWERS
OPD File Detail
72944969960,MDE06255841,CI COLOMBIAN HARMONY FLOWERS S,VEREDA SAN NICOLAS KM 28,LA CEJA,ANTIOQUIA,,CO,TRADEWINDS INTL LLC,2506 PIONEER AVENUE,VISTA,CA,92081,US,CU06,16,16,4.00,FRESH CUT FLOWERS
72944969960,MDE06255843,CI COLOMBIAN HARMONY FLOWERS S,VEREDA SAN NICOLAS KM 28,LA CEJA,ANTIOQUIA,,CO,TRADEWINDS INTL LLC,2506 PIONEER AVENUE,VISTA,CA,92081,US,CU06,15,15,3.75,FRESH CUT FLOWERS
72944969960,MDE06255845,CI COLOMBIAN HARMONY FLOWERS S,VEREDA SAN NICOLAS KM 28,LA CEJA,ANTIOQUIA,,CO,TRADEWINDS INTL LLC,2506 PIONEER AVENUE,VISTA,CA,92081,US,CU06,20,20,5.00,FRESH CUT FLOWERS
72944969960,MDE06257776,CI COLOMBIAN HARMONY FLOWERS S,VEREDA SAN NICOLAS KM 28,LA CEJA,ANTIOQUIA,,CO,TRADEWINDS INTL LLC,2506 PIONEER AVENUE,VISTA,CA,92081,US,CU06,6,6,1.50,FRESH CUT FLOWERS
OPD File PPQ
72944969960,MDE06255843,HYDRANGEA,15.00,,610
72944969960,MDE06255841,HYDRANGEA,16.00,,660
72944969960,MDE06255845,HYDRANGEA,20.00,,560
72944969960,MDE06257776,HYDRANGEA,6.00,,120
